name="Victoria 2.5"
path="mod/Dawn_of_the_Millennium/"
replace_path="events"
replace_path="common/ideologies"
replace_path="common/ideas"
replace_path="common/national_focus"
replace_path="common/decisions"
replace_path="history/countries"
replace_path="history/states"
user_dir="Turn_of_the_Millennium_user_dir"
tags={
	"Fixes"
	"Events"
	"Gameplay"
}
picture="victoria.jpg"
remote_file_id="1322828183"
supported_version="1.7.*"
