
state={
	id=108
	name="STATE_108"
	resources={
		chromium=1.000
		steel=2.000
		tungsten=1.000
	}

	history={
		owner = X15
		victory_points = {
			3500 8 
		}
		buildings = {
			infrastructure = 3
			industrial_complex = 1
			arms_factory = 0
			air_base = 5

		}
		
		add_core_of = X15
	}

	provinces={
		3500 
	}
	manpower=292000
	buildings_max_level_factor=1.000
	state_category=rural
}
