
state={
	id=351
	name="STATE_351"

	history={
		owner = OMA
		victory_points = {
			12944 3 
		}
		buildings = {
			infrastructure = 3
			industrial_complex = 0
			arms_factory = 0
			air_base = 0

		}
		add_core_of = OMA
		add_core_of = X88
	}

	provinces={
		8182 12944 
	}
	manpower=252000
	buildings_max_level_factor=1.000
	state_category=rural
}
