
state={
	id=426
	name="STATE_426"
	resources={
		steel=27.000
	}

	history={
		owner = SOV
		victory_points = {
			333 3 
		}
		buildings = {
			infrastructure = 3
			industrial_complex = 0
			arms_factory = 0
			air_base = 0

		}
		add_core_of = SOV
	}

	provinces={
		2 39 62 72 75 81 85 89 93 121 129 138 150 160 163 164 166 231 252 333 2996 3031 3035 3057 3077 3085 3124 3143 3154 3157 3160 3163 3175 3176 3220 3323 6017 6022 6034 6056 6073 6075 6097 6101 6109 6122 6143 6167 6182 6189 6203 6245 9046 9102 9122 9130 9131 9144 9153 9168 9187 9188 9199 9207 9256 11036 11039 11062 11071 11083 11084 11093 11099 11103 11107 11131 11154 11165 11166 11168 11178 11189 11205 11213 
	}
	manpower=2399600
	buildings_max_level_factor=1.000
	state_category=town
}
