
state={
	id=457
	name="STATE_457"

	history={
		owner = SOV
		victory_points = {
			12683 3 
		}
		buildings = {
			infrastructure = 3
			industrial_complex = 0
			arms_factory = 0
			air_base = 0

		}
		add_core_of = SOV
	}

	provinces={
		1865 12551 12683 
	}
	manpower=3000
	buildings_max_level_factor=1.000
	state_category=rural
}
