
state={
	id=463
	name="STATE_463"

	history={
		owner = X69
		victory_points = {
			11773 3 
		}
		buildings = {
			infrastructure = 3
			industrial_complex = 0
			arms_factory = 0
			11773 = {
				naval_base = 2
			}
			air_base = 0

		}
		add_core_of = ITA
		add_core_of = X69
	}

	provinces={
		902 6891 9772 9863 11755 11773 11824 11874 
	}
	manpower=524080
	buildings_max_level_factor=1.000
	state_category=pastoral
}
