
state={
	id=62
	name="STATE_62"
	resources={
		oil=1.000
	}

	history={
		owner = X11
		victory_points = {
			3326 8 
		}
		buildings = {
			infrastructure = 3
			industrial_complex = 1
			arms_factory = 0
			3326 = {
				naval_base = 2
			}
			air_base = 5

		}
		
		add_core_of = X11
	}

	provinces={
		3326 
	}
	manpower=64400
	buildings_max_level_factor=1.000
	state_category=rural
}
