
state={
	id=647
	name="STATE_647"
	resources={
		rubber=0.000
	}

	history={
	owner = UNC
		add_core_of = UNC
		victory_points = {
			8062 1 
		}
		buildings = {
			infrastructure = 0
			industrial_complex = 0
			arms_factory = 0
			air_base = 0

		}
	}

	provinces={
		8019 8062 
	}
	manpower=716000
	buildings_max_level_factor=1.000
	state_category=pastoral
}
