
state={
	id=701
	name="STATE_701"
	resources={
		steel=2.000
		tungsten=5.000
	}

	history={
	owner = UNC
		add_core_of = UNC
		victory_points = {
			2211 1 
		}
		buildings = {
			infrastructure = 0
			industrial_complex = 0
			arms_factory = 0
			air_base = 0

		}
	}

	provinces={
		2197 2203 2211 5195 7839 8204 8212 8232 8241 12966 12974 12980 12988 
	}
	manpower=16000
	buildings_max_level_factor=1.000
	state_category=pastoral
}
