
state={
	id=708
	name="STATE_708"

	history={
	owner = UNC
		add_core_of = UNC
		victory_points = {
			13061 1 
		}
		buildings = {
			infrastructure = 0
			industrial_complex = 0
			arms_factory = 0
			air_base = 0

		}
	}

	provinces={
		4006 12549 12634 13061 
	}
	manpower=5000
	buildings_max_level_factor=1.000
	state_category=pastoral
}
