
state={
	id=86
	name="STATE_86"
	resources={
		aluminium=0.000
		steel=2.000
	}

	history={
		owner = CHI
		victory_points = {
			11916 4 
		}
		buildings = {
			infrastructure = 3
			industrial_complex = 2
			arms_factory = 0
			air_base = 0

		}
		add_core_of = CHI
	}

	provinces={
		4066 4079 7085 7094 7126 9995 10040 10079 10098 11916 11973 12036 
	}
	manpower=11062964
	buildings_max_level_factor=1.000
	state_category=megalopolis
}
